{
	"info": {
		"name": "payment_doku",
		"_postman_id": "48215364-8787-4d57-a499-f47916fedcd3",
		"description": "",
		"schema": "https://schema.getpostman.com/json/collection/v2.1.0/collection.json"
	},
	"item": [
		{
			"name": "ping",
			"request": {
				"method": "GET",
				"header": [],
				"body": {},
				"url": {
					"raw": "https://staging.doku.com/apikirimdoku/ping?agentKey=A40006&requestId=123456789&signature=FpqnYFvg0+et4YBQ9vT7CQ==",
					"protocol": "https",
					"host": [
						"staging",
						"doku",
						"com"
					],
					"path": [
						"apikirimdoku",
						"ping"
					],
					"query": [
						{
							"key": "agentKey",
							"value": "A40006",
							"equals": true
						},
						{
							"key": "requestId",
							"value": "123456789",
							"equals": true
						},
						{
							"key": "signature",
							"value": "FpqnYFvg0+et4YBQ9vT7CQ==",
							"equals": true
						}
					]
				},
				"description": ""
			},
			"response": []
		},
		{
			"name": "ping",
			"request": {
				"method": "POST",
				"header": [
					{
						"key": "agentKey",
						"value": "A40825"
					},
					{
						"key": "requestId",
						"value": "cc4d0efb-c00d-4d52-9667-6e6bbb2da012"
					},
					{
						"key": "signature",
						"value": "kv89VVGPFv1vxwHAb2k09qtZ8XEKZhd6sdL26+YXCTRB3n4RtnonlBGs2GiXMzuc"
					}
				],
				"body": {
					"mode": "raw",
					"raw": ""
				},
				"url": {
					"raw": "https://staging.doku.com/apikirimdoku/ping",
					"protocol": "https",
					"host": [
						"staging",
						"doku",
						"com"
					],
					"path": [
						"apikirimdoku",
						"ping"
					]
				},
				"description": ""
			},
			"response": []
		},
		{
			"name": "inquiry",
			"request": {
				"method": "POST",
				"header": [
					{
						"key": "Content-Type",
						"value": "application/x-www-form-urlencoded"
					},
					{
						"key": "agentKey",
						"value": "A40825"
					},
					{
						"key": "requestId",
						"value": "cc4d0efb-c00d-4d52-9667-6e6bbb2da012"
					},
					{
						"key": "signature",
						"value": "kv89VVGPFv1vxwHAb2k09qtZ8XEKZhd6sdL26+YXCTRB3n4RtnonlBGs2GiXMzuc"
					}
				],
				"body": {
					"mode": "urlencoded",
					"urlencoded": [
						{
							"key": "senderCountry.Code",
							"value": "ID",
							"description": "",
							"type": "text"
						},
						{
							"key": "senderCurrency.Code",
							"value": "IDR",
							"description": "",
							"type": "text"
						},
						{
							"key": "beneficiaryCountry.Code",
							"value": "ID",
							"description": "",
							"type": "text"
						},
						{
							"key": "beneficiaryCurrency.Code",
							"value": "IDR",
							"description": "",
							"type": "text"
						},
						{
							"key": "channel.Code",
							"value": "07",
							"description": "",
							"type": "text"
						},
						{
							"key": "senderAmount",
							"value": "100000",
							"description": "",
							"type": "text"
						},
						{
							"key": "beneficiaryAccount.bank.code",
							"value": "HSBCIDJA",
							"description": "",
							"type": "text"
						},
						{
							"key": "beneficiaryAccount.bank.countryCode",
							"value": "ID",
							"description": "",
							"type": "text"
						},
						{
							"key": "beneficiaryAccount.bank.id",
							"value": "041",
							"description": "",
							"type": "text"
						},
						{
							"key": "beneficiaryAccount.bank.name",
							"value": "BANK HSBC",
							"description": "",
							"type": "text"
						},
						{
							"key": "beneficiaryAccount.city",
							"value": "Jakarta",
							"description": "",
							"type": "text"
						},
						{
							"key": "beneficiaryAccount.name",
							"value": "John Doe",
							"description": "",
							"type": "text"
						},
						{
							"key": "beneficiaryAccount.number",
							"value": "1234567890",
							"description": "",
							"type": "text"
						}
					]
				},
				"url": {
					"raw": "https://staging.doku.com/apikirimdoku/cashin/inquiry",
					"protocol": "https",
					"host": [
						"staging",
						"doku",
						"com"
					],
					"path": [
						"apikirimdoku",
						"cashin",
						"inquiry"
					]
				},
				"description": ""
			},
			"response": []
		},
		{
			"name": "disbursement",
			"request": {
				"method": "POST",
				"header": [
					{
						"key": "Content-Type",
						"value": "application/json"
					},
					{
						"key": "agentKey",
						"value": "A40825"
					},
					{
						"key": "requestId",
						"value": "c6d33034-d374-1004-82be-58419227ce92"
					},
					{
						"key": "signature",
						"value": "FpqnYFvg0+et4YBQ9vT7CQ=="
					}
				],
				"body": {
					"mode": "raw",
					"raw": "{\n\t\"sendType\": \"senderAmount\",\n\t\"auth1\": \"1234\",\n\t\"beneficiary\": {\n\t\t\"address\": \"\",\n\t\t\"country\": {\n\t\t\t\"code\": \"ID\"\n\t\t},\n\t\t\"firstName\": \"KHRISNA\",\n\t\t\"lastName\": \"HASUDUNGAN R\",\n\t\t\"phoneNumber\": \"62816773344\"\n\t},\n\t\"beneficiaryAccount\": {\n\t\t\"address\": \"Jakarta\",\n\t\t\"bank\": {\n\t\t\t\"code\": \"NUPAIDJ6\",\n\t\t\t\"countryCode\": \"ID\",\n\t\t\t\"id\": \"145\",\n\t\t\t\"name\": \"Bank Nusantara Parahyangan\"\n\t\t},\n\t\t\"city\": \"Jakarta\",\n\t\t\"name\": \"ELYN\",\n\t\t\"number\": \"101010\"\n\t},\n\t\"beneficiaryCity\": \"\",\n\t\"beneficiaryCountry\": {\n\t\t\"code\": \"ID\"\n\t},\n\t\"beneficiaryCurrency\": {\n\t\t\"code\": \"IDR\"\n\t},\n\t\"channel\": {\n\t\t\"code\": \"07\"\n\t},\n\t\"inquiry\": {\n\t\t\"idToken\": \"I04162147974532\"\n\t},\n\t\"sender\": {\n\t\t\"address\": \"UL.AKADEMIKA VARGI D.28, KV.452\",\n\t\t\"birthDate\": \"1988-05-25\",\n\t\t\"country\": {\n\t\t\t\"code\": \"ID\"\n\t\t},\n\t\t\"firstName\": \"IRINA\",\n\t\t\"gender\": \"FEMALE\",\n\t\t\"lastName\": \"DOBRUNOVA\",\n\t\t\"personalId\": \"4509932907\",\n\t\t\"personalIdCountry\": {\n\t\t\t\"code\": \"ID\"\n\t\t},\n\t\t\"personalIdExpireDate\": \"2020-01-01\",\n\t\t\"personalIdIssueDate\": \"2008-07-18\",\n\t\t\"personalIdType\": \"PASSPORT\",\n\t\t\"phoneNumber\": \"7-916-5786212\"\n\t},\n\t\"senderAmount\": 1524630,\n\t\"senderCountry\": {\n\t\t\"code\": \"ID\"\n\t},\n\t\"senderCurrency\": {\n\t\t\"code\": \"IDR\"\n\t},\n\t\"senderNote\": \"family maintenance\",\n\t\"beneficiaryWalletId\": \"\"\n}"
				},
				"url": {
					"raw": "https://staging.doku.com/apikirimdoku/cashin/remit",
					"protocol": "https",
					"host": [
						"staging",
						"doku",
						"com"
					],
					"path": [
						"apikirimdoku",
						"cashin",
						"remit"
					]
				},
				"description": ""
			},
			"response": []
		},
		{
			"name": "doGeneratePaymentCode",
			"request": {
				"method": "POST",
				"header": [
					{
						"key": "Content-Type",
						"value": "application/x-www-form-urlencoded"
					}
				],
				"body": {
					"mode": "raw",
					"raw": "data={\"req_mall_id\":\"5561\",\"req_chain_merchant\":\"NA\",\"req_amount\":\"50000.00\",\"req_words\":\"5c656040995681b74dfd56ee1fb75882c6185283\",\"req_trans_id_merchant\":\"full_1519984584\",\"req_purchase_amount\":\"50000.00\",\"req_request_date_time\":\"20180305133048\",\"req_session_id\":\"6d092d303ad6a0d38def31554ddf862639f08dd6\",\"req_email\":\"test@test.com\",\"req_name\":\"TEST NAME\",\"req_mobile_phone\":\"089696223555\",\"req_basket\":\"testing\",\"req_currency\":\"360\",\"req_purchase_currency\":\"360\"}"
				},
				"url": {
					"raw": "https://staging.doku.com/api/payment/doGeneratePaymentCode",
					"protocol": "https",
					"host": [
						"staging",
						"doku",
						"com"
					],
					"path": [
						"api",
						"payment",
						"doGeneratePaymentCode"
					]
				},
				"description": ""
			},
			"response": []
		},
		{
			"name": "transaction_info",
			"request": {
				"method": "POST",
				"header": [
					{
						"key": "Content-Type",
						"value": "application/x-www-form-urlencoded"
					},
					{
						"key": "agentKey",
						"value": "A40825",
						"disabled": true
					},
					{
						"key": "requestId",
						"value": "cc4d0efb-c00d-4d52-9667-6e6bbb2da012",
						"disabled": true
					},
					{
						"key": "signature",
						"value": "kv89VVGPFv1vxwHAb2k09qtZ8XEKZhd6sdL26+YXCTRB3n4RtnonlBGs2GiXMzuc",
						"disabled": true
					},
					{
						"key": "transactionId",
						"value": "DK0790950",
						"disabled": true
					}
				],
				"body": {
					"mode": "urlencoded",
					"urlencoded": [
						{
							"key": "transactionId",
							"value": "DK0790950",
							"description": "",
							"type": "text"
						},
						{
							"key": "signature",
							"value": "kv89VVGPFv1vxwHAb2k09qtZ8XEKZhd6sdL26+YXCTRB3n4RtnonlBGs2GiXMzuc",
							"description": "",
							"type": "text"
						},
						{
							"key": "requestId",
							"value": "cc4d0efb-c00d-4d52-9667-6e6bbb2da012",
							"description": "",
							"type": "text"
						},
						{
							"key": "agentKey",
							"value": "A40825",
							"description": "",
							"type": "text"
						}
					]
				},
				"url": {
					"raw": "https://staging.doku.com/apikirimdoku/transaction/info",
					"protocol": "https",
					"host": [
						"staging",
						"doku",
						"com"
					],
					"path": [
						"apikirimdoku",
						"transaction",
						"info"
					]
				},
				"description": ""
			},
			"response": []
		}
	]
}